{
    "status": true,
    "message": "Bookings fetched successfully",
    "data": {
        "bookings": {
            "current_page": 1,
            "data": [
                {
                    "id": 1280,
                    "marketing_id": "USR-0",
                    "department_id": 2,
                    "client_name": "NUAP INDIA PRIVATE LIMITED",
                    "client_address": null,
                    "job_order_date": "2024-12-10T00:00:00.000000Z",
                    "report_issue_to": "",
                    "reference_no": "101479_10/12/2024 NUAP INDIA PRIVATE LIMITED",
                    "contact_no": "",
                    "contact_email": "",
                    "name_of_work": null,
                    "hold_status": false,
                    "payment_option": "WITHOUT_BILL",
                    "upload_letter_path": "10122024 NUAP Indian.pdf",
                    "m_s": "",
                    "letter_date": "2024-12-10",
                    "created_by_id": 1,
                    "created_by_type": "admin",
                    "created_at": "2025-11-29T10:55:52.000000Z",
                    "updated_at": "2025-12-06T03:33:29.000000Z",
                    "deleted_at": null,
                    "client_id": 1,
                    "original_ref_no": "10/12/2024 NUAP INDIA PRIVATE LIMITED"
                },
                {
                    "id": 3072,
                    "marketing_id": "MKT016",
                    "department_id": 1,
                    "client_name": "M/S L D ENTERPRISES, SHAHDARA (DELHI)",
                    "client_address": null,
                    "job_order_date": "2023-12-30T00:00:00.000000Z",
                    "report_issue_to": "",
                    "reference_no": "50092_14  -JAN24 28/12/2023",
                    "contact_no": "",
                    "contact_email": "",
                    "name_of_work": null,
                    "hold_status": false,
                    "payment_option": "WITHOUT_BILL",
                    "upload_letter_path": "14  -JAN24 28122023 MS L D ENTERPRISES ,SHAHDARA (DELHI).pdf",
                    "m_s": "",
                    "letter_date": "2023-12-30",
                    "created_by_id": 1,
                    "created_by_type": "admin",
                    "created_at": "2025-11-29T10:55:52.000000Z",
                    "updated_at": null,
                    "deleted_at": null,
                    "client_id": null,
                    "original_ref_no": "14  -JAN24 28/12/2023"
                },
                {
                    "id": 3328,
                    "marketing_id": "MKT001",
                    "department_id": 1,
                    "client_name": "JD ENTERPRISES ,TRILOKPURI, DELHI ",
                    "client_address": null,
                    "job_order_date": "2022-08-16T00:00:00.000000Z",
                    "report_issue_to": "",
                    "reference_no": "14834_15/08/2022",
                    "contact_no": "",
                    "contact_email": "",
                    "name_of_work": null,
                    "hold_status": false,
                    "payment_option": "WITHOUT_BILL",
                    "upload_letter_path": "413 -MAR23 JD ENTERPRISES TRILOKPURI DELHI 18082022.pdf",
                    "m_s": "",
                    "letter_date": "2022-08-16",
                    "created_by_id": 1,
                    "created_by_type": "admin",
                    "created_at": "2025-11-29T10:55:52.000000Z",
                    "updated_at": null,
                    "deleted_at": null,
                    "client_id": null,
                    "original_ref_no": "15/08/2022"
                },
                {
                    "id": 3584,
                    "marketing_id": "MKT002",
                    "department_id": 1,
                    "client_name": "S K CABLE COMPANY ,FRIENDS COLONEY INDUSTRIAL AREA (DELHI)",
                    "client_address": null,
                    "job_order_date": "2024-05-10T00:00:00.000000Z",
                    "report_issue_to": "",
                    "reference_no": "75375_162 -MAY24 09/05/2024",
                    "contact_no": "",
                    "contact_email": "",
                    "name_of_work": null,
                    "hold_status": false,
                    "payment_option": "WITHOUT_BILL",
                    "upload_letter_path": "162 -MAY24 09052024 S K CABLE COMPANY FRIENDS COLONEY INDUSTRIAL AREA, SHAHDARA(DELHI).pdf",
                    "m_s": "",
                    "letter_date": "2024-05-10",
                    "created_by_id": 1,
                    "created_by_type": "admin",
                    "created_at": "2025-11-29T10:55:52.000000Z",
                    "updated_at": null,
                    "deleted_at": null,
                    "client_id": null,
                    "original_ref_no": "162 -MAY24 09/05/2024"
                },
                {
                    "id": 5632,
                    "marketing_id": "MKT002",
                    "department_id": 1,
                    "client_name": "M/S WARDHMAN ENTERPRISES ,STATION ROAD ,MATHURA",
                    "client_address": null,
                    "job_order_date": "2023-05-06T00:00:00.000000Z",
                    "report_issue_to": "",
                    "reference_no": "19211_257 -MAY23 05/05/2023",
                    "contact_no": "",
                    "contact_email": "",
                    "name_of_work": null,
                    "hold_status": false,
                    "payment_option": "WITHOUT_BILL",
                    "upload_letter_path": "257 -MAY23 MS WARDHMAN ENTERPRISES (SURANA CABLE) ,STATION ROAD MATHURA 05052023.pdf",
                    "m_s": "",
                    "letter_date": "2023-05-06",
                    "created_by_id": 1,
                    "created_by_type": "admin",
                    "created_at": "2025-11-29T10:55:52.000000Z",
                    "updated_at": null,
                    "deleted_at": null,
                    "client_id": null,
                    "original_ref_no": "257 -MAY23 05/05/2023"
                },
                {
                    "id": 5888,
                    "marketing_id": "MKT003",
                    "department_id": 4,
                    "client_name": "JAL JEEVAN MISSION UTTRAKHAND",
                    "client_address": null,
                    "job_order_date": "2022-12-26T00:00:00.000000Z",
                    "report_issue_to": "",
                    "reference_no": "10203_2728/JAL JEEVAN MISSION/2021-22 21/12/2022",
                    "contact_no": "",
                    "contact_email": "",
                    "name_of_work": null,
                    "hold_status": false,
                    "payment_option": "WITHOUT_BILL",
                    "upload_letter_path": "131 -JAN23 JAL SANSTHAN HARIDWAR SHYAM ENGINEERS 21122022.pdf",
                    "m_s": "",
                    "letter_date": "2022-12-26",
                    "created_by_id": 1,
                    "created_by_type": "admin",
                    "created_at": "2025-11-29T10:55:52.000000Z",
                    "updated_at": null,
                    "deleted_at": null,
                    "client_id": null,
                    "original_ref_no": "2728/JAL JEEVAN MISSION/2021-22 21/12/2022"
                },
                {
                    "id": 6400,
                    "marketing_id": "MKT002",
                    "department_id": 1,
                    "client_name": "K K TILES ,ROHTAK (HARYANA)",
                    "client_address": null,
                    "job_order_date": "2023-12-09T00:00:00.000000Z",
                    "report_issue_to": "",
                    "reference_no": "49885_308 -DEC23 07/12/2023",
                    "contact_no": "",
                    "contact_email": "",
                    "name_of_work": null,
                    "hold_status": false,
                    "payment_option": "WITHOUT_BILL",
                    "upload_letter_path": "308 -DEC23 07122023 K K TILES ,ROHTAK (HARYANA).pdf",
                    "m_s": "",
                    "letter_date": "2023-12-09",
                    "created_by_id": 1,
                    "created_by_type": "admin",
                    "created_at": "2025-11-29T10:55:52.000000Z",
                    "updated_at": null,
                    "deleted_at": null,
                    "client_id": null,
                    "original_ref_no": "308 -DEC23 07/12/2023"
                },
                {
                    "id": 7424,
                    "marketing_id": "MKT010",
                    "department_id": 1,
                    "client_name": "S K INDUSTRIES ,FRIENDS COLONEY INDUSTRIAL AREA (DELHI)",
                    "client_address": null,
                    "job_order_date": "2023-06-30T00:00:00.000000Z",
                    "report_issue_to": "",
                    "reference_no": "24100_442 -JUN23 30/06/2023",
                    "contact_no": "",
                    "contact_email": "",
                    "name_of_work": null,
                    "hold_status": false,
                    "payment_option": "WITHOUT_BILL",
                    "upload_letter_path": "442 -JUN23 S K INDUSTRIES ,FRIENDS COLONEY INDUSTRIAL AREA (DELHI) 300602023.pdf",
                    "m_s": "",
                    "letter_date": "2023-06-30",
                    "created_by_id": 1,
                    "created_by_type": "admin",
                    "created_at": "2025-11-29T10:55:52.000000Z",
                    "updated_at": null,
                    "deleted_at": null,
                    "client_id": null,
                    "original_ref_no": "442 -JUN23 30/06/2023"
                },
                {
                    "id": 7936,
                    "marketing_id": "MKT005",
                    "department_id": 1,
                    "client_name": "CPWD AIIMS VIJAY NAGAR ,JAMMU ",
                    "client_address": null,
                    "job_order_date": "2023-03-02T00:00:00.000000Z",
                    "report_issue_to": "",
                    "reference_no": "13379_54(03)/AIIMS/JAMMU/CPWD/2023/95  01/03/2023",
                    "contact_no": "",
                    "contact_email": "",
                    "name_of_work": null,
                    "hold_status": false,
                    "payment_option": "WITHOUT_BILL",
                    "upload_letter_path": "106 -MAR23 CPWD AIIMS VIJAYPUR JAMMU LTRNO 95 01032023.jpeg",
                    "m_s": "",
                    "letter_date": "2023-03-02",
                    "created_by_id": 1,
                    "created_by_type": "admin",
                    "created_at": "2025-11-29T10:55:52.000000Z",
                    "updated_at": null,
                    "deleted_at": null,
                    "client_id": null,
                    "original_ref_no": "54(03)/AIIMS/JAMMU/CPWD/2023/95  01/03/2023"
                },
                {
                    "id": 8448,
                    "marketing_id": "MKT002",
                    "department_id": 1,
                    "client_name": " ELAR INDUSTRIES, INDUSTRIAL AREA SHAHDARA, DELHI",
                    "client_address": null,
                    "job_order_date": "2024-08-21T00:00:00.000000Z",
                    "report_issue_to": "",
                    "reference_no": "101701_63-DEC24-20/08/2024",
                    "contact_no": "",
                    "contact_email": "",
                    "name_of_work": null,
                    "hold_status": false,
                    "payment_option": "WITHOUT_BILL",
                    "upload_letter_path": "63  -DEC24 20082024 ELAR INDUSTRIES,INDUSTRIAL AREA SHAHDARA, DELHI.pdf",
                    "m_s": "",
                    "letter_date": "2024-08-21",
                    "created_by_id": 1,
                    "created_by_type": "admin",
                    "created_at": "2025-11-29T10:55:52.000000Z",
                    "updated_at": null,
                    "deleted_at": null,
                    "client_id": null,
                    "original_ref_no": "63-DEC24-20/08/2024"
                }
            ],
            "first_page_url": "https://mediumslateblue-hummingbird-258203.hostingersite.com/api/marketing-person/MKT001/bookings/without-bill?page=1",
            "from": 1,
            "last_page": 877,
            "last_page_url": "https://mediumslateblue-hummingbird-258203.hostingersite.com/api/marketing-person/MKT001/bookings/without-bill?page=877",
            "links": [
                {
                    "url": null,
                    "label": "&laquo; Previous",
                    "active": false
                },
                {
                    "url": "https://mediumslateblue-hummingbird-258203.hostingersite.com/api/marketing-person/MKT001/bookings/without-bill?page=1",
                    "label": "1",
                    "active": true
                },
                {
                    "url": "https://mediumslateblue-hummingbird-258203.hostingersite.com/api/marketing-person/MKT001/bookings/without-bill?page=2",
                    "label": "2",
                    "active": false
                },
                {
                    "url": "https://mediumslateblue-hummingbird-258203.hostingersite.com/api/marketing-person/MKT001/bookings/without-bill?page=3",
                    "label": "3",
                    "active": false
                },
                {
                    "url": "https://mediumslateblue-hummingbird-258203.hostingersite.com/api/marketing-person/MKT001/bookings/without-bill?page=4",
                    "label": "4",
                    "active": false
                },
                {
                    "url": "https://mediumslateblue-hummingbird-258203.hostingersite.com/api/marketing-person/MKT001/bookings/without-bill?page=5",
                    "label": "5",
                    "active": false
                },
                {
                    "url": "https://mediumslateblue-hummingbird-258203.hostingersite.com/api/marketing-person/MKT001/bookings/without-bill?page=6",
                    "label": "6",
                    "active": false
                },
                {
                    "url": "https://mediumslateblue-hummingbird-258203.hostingersite.com/api/marketing-person/MKT001/bookings/without-bill?page=7",
                    "label": "7",
                    "active": false
                },
                {
                    "url": "https://mediumslateblue-hummingbird-258203.hostingersite.com/api/marketing-person/MKT001/bookings/without-bill?page=8",
                    "label": "8",
                    "active": false
                },
                {
                    "url": "https://mediumslateblue-hummingbird-258203.hostingersite.com/api/marketing-person/MKT001/bookings/without-bill?page=9",
                    "label": "9",
                    "active": false
                },
                {
                    "url": "https://mediumslateblue-hummingbird-258203.hostingersite.com/api/marketing-person/MKT001/bookings/without-bill?page=10",
                    "label": "10",
                    "active": false
                },
                {
                    "url": null,
                    "label": "...",
                    "active": false
                },
                {
                    "url": "https://mediumslateblue-hummingbird-258203.hostingersite.com/api/marketing-person/MKT001/bookings/without-bill?page=876",
                    "label": "876",
                    "active": false
                },
                {
                    "url": "https://mediumslateblue-hummingbird-258203.hostingersite.com/api/marketing-person/MKT001/bookings/without-bill?page=877",
                    "label": "877",
                    "active": false
                },
                {
                    "url": "https://mediumslateblue-hummingbird-258203.hostingersite.com/api/marketing-person/MKT001/bookings/without-bill?page=2",
                    "label": "Next &raquo;",
                    "active": false
                }
            ],
            "next_page_url": "https://mediumslateblue-hummingbird-258203.hostingersite.com/api/marketing-person/MKT001/bookings/without-bill?page=2",
            "path": "https://mediumslateblue-hummingbird-258203.hostingersite.com/api/marketing-person/MKT001/bookings/without-bill",
            "per_page": 10,
            "prev_page_url": null,
            "to": 10,
            "total": 8770
        },
        "booking_status_map": []
    }
}